\babel@toc {french}{}
\beamer@sectionintoc {1}{Concurrence vs parall\IeC {\'e}lisme}{3}{0}{1}
\beamer@sectionintoc {2}{Non-d\IeC {\'e}terminisme}{9}{0}{2}
\beamer@sectionintoc {3}{Synchronisation des acc\IeC {\`e}s}{10}{0}{3}
\beamer@sectionintoc {4}{Tkinter et parall\IeC {\'e}lisme}{13}{0}{4}
